Salary Survey
…
survey %>%
  count(industry, sort = TRUE)

## # A tibble: 1,069 x 2
##    industry                                 n
##    <chr>                                <int>
##  1 Computing or Tech                     4360
##  2 Education (Higher Education)          2359
##  3 Nonprofits                            2331
##  4 Government and Public Administration  1821
##  5 Health care                           1739
##  6 Accounting, Banking & Finance         1688
##  7 Engineering or Manufacturing          1519
##  8 Marketing, Advertising & PR           1064
##  9 Law                                   1050
## 10 Education (Primary/Secondary)          805
## # ... with 1,059 more rows

survey %>%
  count(job_title, sort = TRUE)

## # A tibble: 12,622 x 2
##    job_title                    n
##    <chr>                    <int>
##  1 Software Engineer          289
##  2 Project Manager            242
##  3 Director                   211
##  4 Senior Software Engineer   200
##  5 Executive Assistant        171
##  6 Librarian                  160
##  7 Teacher                    160
##  8 Program Manager            152
##  9 Manager                    146
## 10 Product Manager            122
## # ... with 12,612 more rows
…
